Division,WeightClassKg,Place,Name,Team,BodyweightKg,Best3SquatKg,Best3BenchKg,Best3DeadliftKg,TotalKg,Equipment,Event,Sex,BirthDate
Boys,51.71,1,David Lopez,Coppell,51.71,170.1,86.18,188.24,444.52,Unlimited,SBD,M,
Boys,51.71,2,Dylan McCollum,Keller Central,51.35,133.81,70.31,108.86,312.98,Unlimited,SBD,M,
Boys,51.71,3,Jayden Harris,Keller Fossil Ridge,48.08,106.59,43.09,129.27,278.96,Unlimited,SBD,M,
Boys,51.71,4,Chaitanya Kadiri,Aubrey,45.81,83.91,47.63,92.99,224.53,Unlimited,SBD,M,
Boys,55.79,1,Kai Aquinaldo,Aubrey,55.7,129.27,70.31,131.54,331.12,Unlimited,SBD,M,
Boys,55.79,DQ,Aaron Kurien,Keller Fossil Ridge,55.34,104.33,68.04,129.27,,Unlimited,SBD,M,
Boys,55.79,DQ,Kaiis Garza,Keller Fossil Ridge,55.79,88.45,61.23,92.99,,Unlimited,SBD,M,
Boys,59.87,1,Tyler Stuckey,Aubrey,57.15,215.46,129.27,163.29,508.02,Unlimited,SBD,M,
Boys,59.87,2,Rikki Deere,Keller Central,57.61,170.1,108.86,174.63,453.59,Unlimited,SBD,M,
Boys,59.87,3,Carlos McConico,Keller Central,58.97,163.29,90.72,156.49,410.5,Unlimited,SBD,M,
Boys,59.87,4,Jamal Bolden,Keller Timber Creek,59.15,154.22,63.5,165.56,383.29,Unlimited,SBD,M,
Boys,59.87,5,Gabe Morse,Keller Central,59.06,136.08,104.33,124.74,365.14,Unlimited,SBD,M,
Boys,59.87,6,Connor McWilliams,Keller Timber Creek,59.51,142.88,68.04,151.95,362.87,Unlimited,SBD,M,
Boys,59.87,7,Caden Murphey,Ponder,59.42,129.27,81.65,142.88,353.8,Unlimited,SBD,M,
Boys,59.87,8,Cesar Gonzalez,Keller Fossil Ridge,58.97,108.86,70.31,124.74,303.91,Unlimited,SBD,M,
Boys,67.13,1,Kendreich Scheving,Keller Fossil Ridge,67.13,219.99,145.15,192.78,557.92,Unlimited,SBD,M,
Boys,67.13,2,Jordan Brown,Keller Central,63.87,235.87,97.52,197.31,530.7,Unlimited,SBD,M,
Boys,67.13,3,Brayden Trimm,Keller Central,66.86,222.26,97.52,174.63,494.42,Unlimited,SBD,M,
Boys,67.13,4,Aiden Garza,Keller,66.09,174.63,120.2,174.63,469.47,Unlimited,SBD,M,
Boys,67.13,5,Tyler Samuels,Keller Central,63.5,176.9,83.91,183.7,444.52,Unlimited,SBD,M,
Boys,67.13,6,Preston Lee,Keller Timber Creek,66.9,165.56,108.86,167.83,442.25,Unlimited,SBD,M,
Boys,67.13,7,Roman Capule,Aubrey,66.68,170.1,108.86,147.42,426.38,Unlimited,SBD,M,
Boys,67.13,8,Landyn Plute,Keller Central,66.68,156.49,92.99,170.1,419.57,Unlimited,SBD,M,
Boys,67.13,9,Sawyer Ure,Keller Central,67.13,156.49,97.52,154.22,408.23,Unlimited,SBD,M,
Boys,67.13,10,Sean Preng,Keller Central,66.5,124.74,90.72,167.83,383.29,Unlimited,SBD,M,
Boys,67.13,11,Imarion Jordan,Keller Fossil Ridge,65.77,120.2,72.57,136.08,328.85,Unlimited,SBD,M,
Boys,74.84,1,Colin Bruce,Keller Timber Creek,74.57,238.14,142.88,197.31,578.33,Unlimited,SBD,M,
Boys,74.84,2,Logan Deal,Keller,74.84,217.72,156.49,195.04,569.26,Unlimited,SBD,M,
Boys,74.84,3,Makson Allred,Ponder,73.03,219.99,122.47,195.04,537.51,Unlimited,SBD,M,
Boys,74.84,4,Deacon Lewis,Keller Central,73.94,213.19,99.79,188.24,501.22,Unlimited,SBD,M,
Boys,74.84,5,Samuel Johnson,Keller Fossil Ridge,73.03,131.54,106.59,163.29,401.43,Unlimited,SBD,M,
Boys,74.84,DQ,Brandon Coffman,Keller Fossil Ridge,73.03,102.06,45.36,102.06,,Unlimited,SBD,M,
Boys,82.1,1,Nathan Giddens,Keller Timber Creek,81.47,254.01,163.29,226.8,644.1,Unlimited,SBD,M,
Boys,82.1,2,Chance David,Keller Central,81.28,229.06,147.42,233.6,610.08,Unlimited,SBD,M,
Boys,82.1,3,Oliver Jimenez,Keller,82.05,206.38,154.22,204.12,564.72,Unlimited,SBD,M,
Boys,82.1,4,Kale Jones #1,Ponder,76.66,224.53,136.08,197.31,557.92,Unlimited,SBD,M,
Boys,82.1,5,Isaac Maldonado,Keller Central,82.1,188.24,117.93,213.19,519.36,Unlimited,SBD,M,
Boys,82.1,6,Gabe Saunders,Aubrey,81.19,201.85,122.47,192.78,517.1,Unlimited,SBD,M,
Boys,82.1,7,Riley DuFrane,Aubrey,81.01,183.7,108.86,208.65,501.22,Unlimited,SBD,M,
Boys,82.1,8,Alexander Duoto,Keller Fossil Ridge,78.47,61.23,61.23,136.08,258.55,Unlimited,SBD,M,
Boys,82.1,DQ,Cody Nguyen,Ponder,81.19,208.65,147.42,197.31,,Unlimited,SBD,M,
Boys,82.1,DQ,Sam Tshacher,Keller Central,81.65,167.83,108.86,156.49,,Unlimited,SBD,M,
Boys,89.81,1,Fisher Woolley,Northwest Eaton,89.45,249.48,174.63,238.14,662.24,Unlimited,SBD,M,
Boys,89.81,2,Michael Reinoshek,Keller Fossil Ridge,86.64,238.14,192.78,215.46,646.37,Unlimited,SBD,M,
Boys,89.81,3,Calvin Brown,Keller Timber Creek,88.99,226.8,138.35,240.4,605.55,Unlimited,SBD,M,
Boys,89.81,4,Charel Tshibangu,Keller Fossil Ridge,85.28,226.8,142.88,192.78,562.45,Unlimited,SBD,M,
Boys,89.81,5,Cyle Papa,Keller Timber Creek,87.63,208.65,145.15,195.04,548.85,Unlimited,SBD,M,
Boys,89.81,6,Tyler Kuberski,Ponder,87.54,204.12,102.06,206.38,512.56,Unlimited,SBD,M,
Boys,89.81,7,Sebastian Brilanti,Keller Timber Creek,84.82,183.7,104.33,204.12,492.15,Unlimited,SBD,M,
Boys,89.81,8,Marco Torre,Keller Timber Creek,83.73,172.37,86.18,172.37,430.91,Unlimited,SBD,M,
Boys,89.81,DQ,Ashton Thomas,Keller Central,84.82,83.91,63.5,83.91,,Unlimited,SBD,M,
Boys,89.81,DQ,Darun Sivakumar,Keller Central,89.36,138.35,88.45,133.81,,Unlimited,SBD,M,
Boys,99.79,1,Deandre Henry,Keller Central,99.79,244.94,140.61,229.06,614.62,Unlimited,SBD,M,
Boys,99.79,2,Adrian Vazquez,Keller Fossil Ridge,95.25,183.7,124.74,183.7,492.15,Unlimited,SBD,M,
Boys,99.79,3,Petrus Van Rijn,Aubrey,91.72,172.37,97.52,204.12,474,Unlimited,SBD,M,
Boys,99.79,4,Drake Ellis,Keller Fossil Ridge,99.79,183.7,111.13,176.9,471.74,Unlimited,SBD,M,
Boys,99.79,5,Austen Green,Aubrey,92.53,151.95,108.86,197.31,458.13,Unlimited,SBD,M,
Boys,99.79,6,Jaime Montiel,Keller Fossil Ridge,99.34,6.8,174.63,240.4,421.84,Unlimited,SBD,M,
Boys,99.79,7,Jacob Gearhart,Keller Fossil Ridge,90.08,133.81,83.91,142.88,360.61,Unlimited,SBD,M,
Boys,99.79,DQ,Jacob Smith,Keller,97.89,183.7,142.88,174.63,,Unlimited,SBD,M,
Boys,99.79,DQ,Colton Bratsch,Keller Timber Creek,95.25,183.7,102.06,147.42,,Unlimited,SBD,M,
Boys,109.77,1,Bryce Bardin,Keller Central,100.33,233.6,163.29,222.26,619.15,Unlimited,SBD,M,
Boys,109.77,2,Sam Crane,Keller,107.23,226.8,158.76,222.26,607.81,Unlimited,SBD,M,
Boys,109.77,3,Yajeeva Budha,Keller Fossil Ridge,101.6,219.99,129.27,192.78,542.04,Unlimited,SBD,M,
Boys,109.77,4,Phat Nguyen,Keller Fossil Ridge,106.59,219.99,124.74,183.7,528.44,Unlimited,SBD,M,
Boys,109.77,5,Raul Rosales,Aubrey,102.51,185.97,113.4,174.63,474,Unlimited,SBD,M,
Boys,109.77,6,Tyrique Brooks,Keller Fossil Ridge,102.06,90.72,92.99,106.59,290.3,Unlimited,SBD,M,
Boys,109.77,DQ,William Siripanyo,Keller Fossil Ridge,104.33,217.72,102.06,142.88,,Unlimited,SBD,M,
Boys,124.74,1,Blaine Turner,Ponder,117.48,251.74,131.54,242.67,625.96,Unlimited,SBD,M,
Boys,124.74,2,Jordan Ceyeah,Keller Timber Creek,122.38,158.76,99.79,158.76,417.3,Unlimited,SBD,M,
Boys,124.74,DQ,Cason Cox,Ponder,111.58,222.26,131.54,222.26,,Unlimited,SBD,M,
Boys,124.74,DQ,Luke Williams,Keller,124.74,233.6,142.88,206.38,,Unlimited,SBD,M,
Boys,124.74,DQ,Aiden Rivera,Keller Fossil Ridge,119.66,192.78,120.2,151.95,,Unlimited,SBD,M,
Boys,139.71,1,Shane Brown,Ponder,129.27,231.33,142.88,240.4,614.62,Unlimited,SBD,M,
Boys,139.71,2,Collin Reed,Keller Central,126.33,240.4,145.15,224.53,610.08,Unlimited,SBD,M,
Boys,139.71,3,Shaun Linnear,Keller,132,240.4,142.88,226.8,610.08,Unlimited,SBD,M,
Boys,139.71,DQ,Jorge Robledo,Keller Fossil Ridge,129.27,106.59,102.06,117.93,,Unlimited,SBD,M,
Boys,139.71+,1,Landon Strassman,Keller,152.59,217.72,145.15,208.65,571.53,Unlimited,SBD,M,
Boys,139.71+,2,Trayvaughn Burnett,Keller Central,153.04,229.06,113.4,183.7,526.17,Unlimited,SBD,M,
Boys,139.71+,3,Jeremiah Howard,Keller Fossil Ridge,163.29,192.78,108.86,192.78,494.42,Unlimited,SBD,M,
Boys,139.71+,4,Albert Gutierrez,Keller Fossil Ridge,147.87,154.22,102.06,165.56,421.84,Unlimited,SBD,M,
Boys,139.71+,DQ,Ian Davidson,Keller Central,140.39,240.4,156.49,204.12,,Unlimited,SBD,M,
